module gitlab.com/AntiMS/codecomic

go 1.16

require (
	github.com/fogleman/gg v1.3.0
	github.com/golang/freetype v0.0.0-20170609003504-e2365dfdc4a0
	golang.org/x/image v0.0.0-20210628002857-a66eb6448b8d
)
